Case Study 01 EDA Beers_Breweries
…
#Question 1: How many Breweries are present in each state?

#We created a bar chart to display how many breweries are in each state as well as a list and table #The states with the highest brewery count is: Colorado, California, Michigan, Oregon and Texas.. This would be a great market to start if any new releases of beer Budweiser wants to create.

## 
##  AK  AL  AR  AZ  CA  CO  CT  DC  DE  FL  GA  HI  IA  ID  IL  IN  KS  KY  LA  MA 
##   7   3   2  11  39  47   8   1   2  15   7   4   5   5  18  22   3   4   5  23 
##  MD  ME  MI  MN  MO  MS  MT  NC  ND  NE  NH  NJ  NM  NV  NY  OH  OK  OR  PA  RI 
##   7   9  32  12   9   2   9  19   1   5   3   3   4   2  16  15   6  29  25   5 
##  SC  SD  TN  TX  UT  VA  VT  WA  WI  WV  WY 
##   4   1   3  28   4  16  10  23  20   1   4

## # A tibble: 51 x 2
##    State     n
##    <chr> <int>
##  1 " AK"     7
##  2 " AL"     3
##  3 " AR"     2
##  4 " AZ"    11
##  5 " CA"    39
##  6 " CO"    47
##  7 " CT"     8
##  8 " DC"     1
##  9 " DE"     2
## 10 " FL"    15
## # ... with 41 more rows
…
